{
    "@context": "https://doi.org/10.5063/schema/codemeta-2.0",
    "@type": "SoftwareSourceCode",
    "name": "eossr",
    "description": "The eOSSR is the Python library to programmatically manage the ESCAPE OSSR.",
    "license": "https://spdx.org/licenses/MIT",
    "version": "",
    "softwareVersion": "",
    "codeRepository": "https://gitlab.com/escape-ossr/eossr",
    "developmentStatus": "active",
    "isAccessibleForFree": true,
    "isPartOf": [
        "https://gitlab.com/escape-ossr",
        "https://projectescape.eu/"
    ],
    "referencePublication": "https://doi.org/10.48550/arxiv.2212.00499",
    "contIntegration": "https://gitlab.com/escape-ossr/eossr/-/pipelines",
    "buildInstructions": "https://gitlab.com/escape-ossr/eossr/-/blob/master/README.md",
    "issueTracker": "https://gitlab.com/escape-ossr/eossr/-/issues",
    "readme": "https://gitlab.com/escape-ossr/eossr/-/blob/master/README.md",
    "programmingLanguage": [
        {
            "@type": "ComputerLanguage",
            "name": "Python",
            "url": "https://www.python.org/"
        }
    ],
    "softwareRequirements": [
        {
            "@type": "SoftwareApplication",
            "identifier": "requests",
            "name": "requests",
            "softwareVersion": ">=3.6"
        },
        {
            "@type": "SoftwareApplication",
            "identifier": "pytest",
            "name": "pytest",
            "softwareVersion": ">=5.4.2"
        }
    ],
    "keywords": [
        "jupyter-notebook",
        "zenodo"
    ],
    "runtimePlatform": "Python 3",
    "downloadUrl": "",
    "releaseNotes": "",
    "dateCreated": "2021-08-31",
    "datePublished": "",
    "dateModified": "",
    "operatingSystem": "",
    "maintainer": {
        "@type": "Person",
        "@id": "https://orcid.org/0000-0003-2224-4594",
        "givenName": "Enrique",
        "familyName": "Garcia",
        "email": "garcia@lapp.in2p3.fr",
        "affiliation": {
            "@type": "Organization",
            "name": "Univ. Savoie Mont Blanc, CNRS, LAPP"
        }
    },
    "author": [
        {
            "@type": "Person",
            "@id": "https://orcid.org/0000-0002-5686-2078",
            "givenName": "Thomas",
            "familyName": "Vuillaume",
            "email": "vuillaume@lapp.in2p3.fr",
            "affiliation": {
                "@type": "Organization",
                "name": "Univ. Savoie Mont Blanc, CNRS, LAPP"
            }
        },
        {
            "@type": "Person",
            "@id": "https://orcid.org/0000-0003-2224-4594",
            "givenName": "Enrique",
            "familyName": "Garcia",
            "email": "garcia@lapp.in2p3.fr",
            "affiliation": {
                "@type": "Organization",
                "name": "Univ. Savoie Mont Blanc, CNRS, LAPP"
            }
        }
    ],
    "contributor": [
        {
            "@type": "Person",
            "@id": "https://orcid.org/0000-0002-5321-8404",
            "givenName": "Christian",
            "familyName": "Tacke",
            "affiliation": {
                "@type": "Organization",
                "name": "GSI"
            }
        },
        {
            "@type": "Person",
            "@id": "https://orcid.org/0000-0001-7821-8673",
            "givenName": "Tam\u00e1s",
            "familyName": "G\u00e1l",
            "email": "tamas.gal@fau.de",
            "affiliation": {
                "@type": "Organization",
                "name": "ECAP, FAU (Nuremberg, Germany)"
            }
        }
    ],
    "funder": [
        {
            "@type": "Organization",
            "name": "European Commission",
            "@id": "https://doi.org/10.13039/501100000780"
        }
    ],
    "funding": "824064"
}